[gd_scene load_steps=4 format=3 uid="uid://dhuo8jg3j6kht"]

[ext_resource type="Texture2D" uid="uid://bgnit275y3wf1" path="res://assets/drawings/blue_dot.svg" id="1_3aq62"]
[ext_resource type="Shader" path="res://shaders/DotPink.gdshader" id="1_olh8q"]

[sub_resource type="ShaderMaterial" id="ShaderMaterial_ughlg"]
shader = ExtResource("1_olh8q")

[node name="Dot0" type="TextureRect"]
material = SubResource("ShaderMaterial_ughlg")
texture = ExtResource("1_3aq62")
stretch_mode = 4
