<?xml version="1.0" encoding="UTF-8" standalone="no"?>
<!-- Created with Inkscape (http://www.inkscape.org/) -->

<svg
   width="15.875mm"
   height="15.875mm"
   viewBox="0 0 15.875 15.875"
   version="1.1"
   id="svg1"
   inkscape:version="1.3.2 (1:1.3.2+202311252150+091e20ef0f)"
   sodipodi:docname="bomb.svg"
   xmlns:inkscape="http://www.inkscape.org/namespaces/inkscape"
   xmlns:sodipodi="http://sodipodi.sourceforge.net/DTD/sodipodi-0.dtd"
   xmlns="http://www.w3.org/2000/svg"
   xmlns:svg="http://www.w3.org/2000/svg">
  <sodipodi:namedview
     id="namedview1"
     pagecolor="#000000"
     bordercolor="#000000"
     borderopacity="0.25"
     inkscape:showpageshadow="2"
     inkscape:pageopacity="0.0"
     inkscape:pagecheckerboard="true"
     inkscape:deskcolor="#d1d1d1"
     inkscape:document-units="mm"
     inkscape:zoom="7.152435"
     inkscape:cx="45.788602"
     inkscape:cy="28.102318"
     inkscape:window-width="1850"
     inkscape:window-height="1016"
     inkscape:window-x="1990"
     inkscape:window-y="27"
     inkscape:window-maximized="1"
     inkscape:current-layer="layer6" />
  <defs
     id="defs1">
    <mask
       maskUnits="userSpaceOnUse"
       id="mask3">
      <circle
         style="fill:#fffff7;fill-opacity:1;stroke-width:0.804366;stroke-linecap:round;stroke-opacity:0.936281"
         id="circle3"
         cx="19.895771"
         cy="35.440441"
         r="14.150912"
         transform="rotate(-8.7583186)" />
    </mask>
    <mask
       maskUnits="userSpaceOnUse"
       id="mask4">
      <circle
         style="fill:#fffff7;fill-opacity:1;stroke-width:0.804366;stroke-linecap:round;stroke-opacity:0.936281"
         id="circle4"
         cx="34.669834"
         cy="14.983949"
         r="14.150912"
         transform="rotate(25.279391)" />
    </mask>
  </defs>
  <g
     inkscape:label="Layer 1"
     inkscape:groupmode="layer"
     id="layer1"
     transform="translate(-39.249054,-51.956306)">
    <circle
       style="fill:#901e3c;fill-opacity:1;stroke-width:0.451184;stroke-linecap:round;stroke-opacity:0.936281"
       id="path1"
       cx="47.186554"
       cy="59.893806"
       r="7.9375" />
  </g>
  <g
     inkscape:groupmode="layer"
     id="layer5"
     inkscape:label="Layer 2">
    <path
       sodipodi:type="star"
       style="fill:#c09a3c;fill-opacity:1;stroke-width:0.264999;stroke-linecap:round;stroke-opacity:0.936281"
       id="path2"
       inkscape:flatsided="false"
       sodipodi:sides="5"
       sodipodi:cx="30.957355"
       sodipodi:cy="29.99774"
       sodipodi:r1="21.066332"
       sodipodi:r2="4.5961056"
       sodipodi:arg1="0.78539816"
       sodipodi:arg2="0.56699148"
       inkscape:rounded="0"
       inkscape:randomized="0"
       d="M 45.853502,44.893886 34.834265,32.466293 21.393441,48.767979 29.807653,34.447725 10.150385,26.70224 26.36989,30.279429 27.661855,9.1907694 29.271849,25.721848 49.727595,20.433825 34.50312,27.073404 Z"
       transform="matrix(0.50720228,-0.23953026,0.23953026,0.50720228,-11.50943,-0.46726454)"
       inkscape:transform-center-x="0.10964217"
       inkscape:transform-center-y="1.0235933"
       mask="url(#mask4)" />
    <path
       sodipodi:type="star"
       style="fill:#e1c439;fill-opacity:1;stroke-width:0.264999;stroke-linecap:round;stroke-opacity:0.936281"
       id="path2-5"
       inkscape:flatsided="false"
       sodipodi:sides="5"
       sodipodi:cx="30.957355"
       sodipodi:cy="29.99774"
       sodipodi:r1="21.066332"
       sodipodi:r2="4.8353701"
       sodipodi:arg1="0.78539816"
       sodipodi:arg2="0.67830806"
       inkscape:rounded="0"
       inkscape:randomized="0"
       d="M 45.853502,44.893886 34.722346,33.031821 21.393441,48.767979 29.235219,34.516041 10.150385,26.70224 26.128026,29.756123 27.661855,9.1907694 29.694802,25.330111 49.727595,20.433825 35.006384,27.354603 Z"
       transform="matrix(0.55437727,0.08540922,-0.08540922,0.55437727,-3.2223938,-11.941677)"
       inkscape:transform-center-x="0.01540656"
       inkscape:transform-center-y="-1.1137162"
       mask="url(#mask3)" />
  </g>
  <g
     inkscape:groupmode="layer"
     id="layer6"
     inkscape:label="Layer 3"
     style="display:none" />
</svg>
