<?xml version="1.0" encoding="UTF-8" standalone="no"?>
<!-- Created with Inkscape (http://www.inkscape.org/) -->

<svg
   width="12"
   height="12"
   viewBox="0 0 3.1749999 3.1749999"
   version="1.1"
   id="svg1"
   inkscape:version="1.3.2 (1:1.3.2+202311252150+091e20ef0f)"
   sodipodi:docname="green_dot.svg"
   xmlns:inkscape="http://www.inkscape.org/namespaces/inkscape"
   xmlns:sodipodi="http://sodipodi.sourceforge.net/DTD/sodipodi-0.dtd"
   xmlns:xlink="http://www.w3.org/1999/xlink"
   xmlns="http://www.w3.org/2000/svg"
   xmlns:svg="http://www.w3.org/2000/svg">
  <sodipodi:namedview
     id="namedview1"
     pagecolor="#ffffff"
     bordercolor="#000000"
     borderopacity="0.25"
     inkscape:showpageshadow="2"
     inkscape:pageopacity="0.0"
     inkscape:pagecheckerboard="0"
     inkscape:deskcolor="#d1d1d1"
     inkscape:document-units="mm"
     inkscape:zoom="40.800001"
     inkscape:cx="10.036764"
     inkscape:cy="9.9999998"
     inkscape:window-width="1850"
     inkscape:window-height="1016"
     inkscape:window-x="1990"
     inkscape:window-y="27"
     inkscape:window-maximized="1"
     inkscape:current-layer="layer1" />
  <defs
     id="defs1">
    <linearGradient
       id="linearGradient235"
       inkscape:collect="always">
      <stop
         style="stop-color:#1b7f1e;stop-opacity:1;"
         offset="0"
         id="stop235" />
      <stop
         style="stop-color:#5cee2f;stop-opacity:1;"
         offset="0.99870038"
         id="stop236" />
    </linearGradient>
    <linearGradient
       inkscape:collect="always"
       xlink:href="#linearGradient235"
       id="linearGradient236"
       x1="90.486549"
       y1="121.9251"
       x2="90.486549"
       y2="102.42998"
       gradientUnits="userSpaceOnUse"
       gradientTransform="matrix(0.14327986,0,0,0.14327986,67.963259,86.658139)" />
  </defs>
  <g
     inkscape:label="Layer 1"
     inkscape:groupmode="layer"
     id="layer1"
     transform="translate(-79.329584,-101.15104)">
    <circle
       style="fill:url(#linearGradient236);stroke-width:0.0379689;stroke-linecap:round;stroke-opacity:0.936281"
       id="path1"
       cx="80.917084"
       cy="102.73854"
       r="1.5875" />
  </g>
</svg>
