<?xml version="1.0" encoding="UTF-8" standalone="no"?>
<!-- Created with Inkscape (http://www.inkscape.org/) -->

<svg
   width="10.905185mm"
   height="7.9150209mm"
   viewBox="0 0 10.905185 7.9150209"
   version="1.1"
   id="svg1"
   inkscape:version="1.3.2 (1:1.3.2+202311252150+091e20ef0f)"
   sodipodi:docname="venom.svg"
   xmlns:inkscape="http://www.inkscape.org/namespaces/inkscape"
   xmlns:sodipodi="http://sodipodi.sourceforge.net/DTD/sodipodi-0.dtd"
   xmlns="http://www.w3.org/2000/svg"
   xmlns:svg="http://www.w3.org/2000/svg">
  <sodipodi:namedview
     id="namedview1"
     pagecolor="#000000"
     bordercolor="#000000"
     borderopacity="0.25"
     inkscape:showpageshadow="2"
     inkscape:pageopacity="0.0"
     inkscape:pagecheckerboard="true"
     inkscape:deskcolor="#d1d1d1"
     inkscape:document-units="mm"
     inkscape:zoom="7.152435"
     inkscape:cx="22.719535"
     inkscape:cy="33.974444"
     inkscape:window-width="1850"
     inkscape:window-height="1016"
     inkscape:window-x="1990"
     inkscape:window-y="27"
     inkscape:window-maximized="1"
     inkscape:current-layer="layer1" />
  <defs
     id="defs1" />
  <g
     inkscape:label="Layer 1"
     inkscape:groupmode="layer"
     id="layer1"
     transform="translate(-39.406991,-55.587166)">
    <path
       style="fill:#6c9e1f;fill-opacity:1;stroke:#11fe16;stroke-width:0.217825;stroke-linecap:round;stroke-dasharray:none;stroke-opacity:1;paint-order:normal"
       d="m 49.955117,60.302144 c -2.800229,0.392465 -3.21183,1.195261 -4.564742,2.353712 -1.123394,0.961923 -2.96621,0.778272 -3.710663,0.573896 -0.536748,-0.147353 -2.163809,-0.785215 -2.163809,-3.767005 0,-0.610517 0.261713,-1.313798 0.502185,-1.852644 0.840147,-1.882582 2.746393,-2.108098 3.641477,-1.797374 1.268309,0.440287 2.085421,1.379021 2.739534,2.258995 0.59341,0.798313 1.212724,1.034635 3.556018,2.23042 z"
       id="path14"
       sodipodi:nodetypes="cssscssc" />
  </g>
</svg>
