<?xml version="1.0" encoding="UTF-8" standalone="no"?>
<!-- Created with Inkscape (http://www.inkscape.org/) -->

<svg
   width="180"
   height="245"
   viewBox="0 0 47.625 64.822917"
   version="1.1"
   id="svg1"
   inkscape:version="1.3.2 (1:1.3.2+202311252150+091e20ef0f)"
   sodipodi:docname="tile_hatch_0.svg"
   xmlns:inkscape="http://www.inkscape.org/namespaces/inkscape"
   xmlns:sodipodi="http://sodipodi.sourceforge.net/DTD/sodipodi-0.dtd"
   xmlns="http://www.w3.org/2000/svg"
   xmlns:svg="http://www.w3.org/2000/svg">
  <sodipodi:namedview
     id="namedview1"
     pagecolor="#000000"
     bordercolor="#000000"
     borderopacity="0.25"
     inkscape:showpageshadow="2"
     inkscape:pageopacity="0.0"
     inkscape:pagecheckerboard="true"
     inkscape:deskcolor="#d1d1d1"
     inkscape:document-units="mm"
     inkscape:zoom="2.0560856"
     inkscape:cx="-54.22926"
     inkscape:cy="237.3442"
     inkscape:window-width="1850"
     inkscape:window-height="1016"
     inkscape:window-x="1990"
     inkscape:window-y="27"
     inkscape:window-maximized="1"
     inkscape:current-layer="layer2" />
  <defs
     id="defs1" />
  <g
     inkscape:groupmode="layer"
     id="layer2"
     inkscape:label="Layer 2">
    <rect
       style="font-variation-settings:normal;opacity:1;fill:#0b0d1a;fill-opacity:1;stroke:none;stroke-width:0.305514;stroke-linecap:round;stroke-linejoin:miter;stroke-miterlimit:4;stroke-dasharray:none;stroke-dashoffset:0;stroke-opacity:1"
       id="rect2"
       width="47.625"
       height="47.625"
       x="0"
       y="17.197916" />
    <rect
       style="font-variation-settings:normal;fill:#0b0d1a;fill-opacity:1;stroke:#fdffa7;stroke-width:0.27471;stroke-linecap:round;stroke-linejoin:miter;stroke-miterlimit:4;stroke-dasharray:none;stroke-dashoffset:0;stroke-opacity:1"
       id="rect2-6"
       width="43.258732"
       height="42.391899"
       x="2.1831346"
       y="19.814466"
       ry="3.1236293" />
    <path
       style="font-variation-settings:normal;opacity:1;fill:#0b0d1a;fill-opacity:1;stroke:#fdffa7;stroke-width:0.913372;stroke-linecap:round;stroke-linejoin:miter;stroke-miterlimit:4;stroke-dasharray:none;stroke-dashoffset:0;stroke-opacity:1"
       id="path3"
       sodipodi:type="arc"
       sodipodi:cx="-23.812162"
       sodipodi:cy="-56.711723"
       sodipodi:rx="2.9906514"
       sodipodi:ry="2.6967618"
       sodipodi:start="5.4564904"
       sodipodi:end="3.9617754"
       sodipodi:open="true"
       sodipodi:arc-type="arc"
       d="m -21.786561,-58.695722 a 2.9906514,2.6967618 0 0 1 0.762207,2.960252 2.9906514,2.6967618 0 0 1 -2.778071,1.720494 2.9906514,2.6967618 0 0 1 -2.790437,-1.704144 2.9906514,2.6967618 0 0 1 0.740813,-2.964666"
       transform="scale(-1)" />
  </g>
</svg>
